^C:\USERS\X\DOCUMENTS\GAME-ENGINE\PROJECTS\VISUAL2015\GAMEENGINEWINDOWS\GAMEENGINEWINDOWS\GAMEENGINEWINDOWS.RC
C:\USERS\X\DOCUMENTS\GAME-ENGINE\PROJECTS\VISUAL2015\GAMEENGINEWINDOWS\GAMEENGINEWINDOWS\RESOURCE.H
C:\USERS\X\DOCUMENTS\GAME-ENGINE\PROJECTS\VISUAL2015\GAMEENGINEWINDOWS\GAMEENGINEWINDOWS\TARGETVER.H
C:\PROGRAM FILES (X86)\WINDOWS KITS\8.1\INCLUDE\SHARED\SDKDDKVER.H
C:\PROGRAM FILES (X86)\WINDOWS KITS\8.1\INCLUDE\UM\WINDOWS.H
C:\PROGRAM FILES (X86)\WINDOWS KITS\8.1\INCLUDE\SHARED\WINAPIFAMILY.H
C:\PROGRAM FILES (X86)\WINDOWS KITS\8.1\INCLUDE\UM\WINRESRC.H
C:\PROGRAM FILES (X86)\WINDOWS KITS\8.1\INCLUDE\UM\WINUSER.RH
C:\PROGRAM FILES (X86)\WINDOWS KITS\8.1\INCLUDE\UM\COMMCTRL.RH
C:\PROGRAM FILES (X86)\WINDOWS KITS\8.1\INCLUDE\UM\DDE.RH
C:\PROGRAM FILES (X86)\WINDOWS KITS\8.1\INCLUDE\UM\WINNT.RH
C:\PROGRAM FILES (X86)\WINDOWS KITS\8.1\INCLUDE\UM\DLGS.H
C:\PROGRAM FILES (X86)\WINDOWS KITS\8.1\INCLUDE\UM\WINVER.H
C:\PROGRAM FILES (X86)\WINDOWS KITS\8.1\INCLUDE\SHARED\SPECSTRINGS.H
C:\PROGRAM FILES (X86)\MICROSOFT VISUAL STUDIO 14.0\VC\INCLUDE\SAL.H
C:\PROGRAM FILES (X86)\MICROSOFT VISUAL STUDIO 14.0\VC\INCLUDE\CONCURRENCYSAL.H
C:\PROGRAM FILES (X86)\WINDOWS KITS\8.1\INCLUDE\SHARED\DRIVERSPECS.H
C:\PROGRAM FILES (X86)\WINDOWS KITS\8.1\INCLUDE\SHARED\SDV_DRIVERSPECS.H
C:\PROGRAM FILES (X86)\WINDOWS KITS\8.1\INCLUDE\UM\VERRSRC.H
C:\USERS\X\DOCUMENTS\GAME-ENGINE\PROJECTS\VISUAL2015\GAMEENGINEWINDOWS\GAMEENGINEWINDOWS\GAMEENGINEWINDOWS.ICO
C:\USERS\X\DOCUMENTS\GAME-ENGINE\PROJECTS\VISUAL2015\GAMEENGINEWINDOWS\GAMEENGINEWINDOWS\SMALL.ICO
